0000000000000000000000
0000000000000000000000
0000000000000000000000
0000000000000000000000
0000000000000000000000
0000000000000000000000
0000000000000000000000
0000000000000000000000
0000000000000000000000
0000000000000000000000
0000000000000000000000
0000000000000000000000
0000000000000000000000
0000000000000000000000
0000000000000000000000
0000000000000000000000
0000000000000000000000
0000000000000000000000
0000000000000000000000
0000000000000000000000
0000000000000000000000
0000000000000000000000
0000000000000000000000
0000000000000000000000
0000000000000000000000
0000000000000000000000
0000000000000000000000
0000000000000000000000
0000000000000000000000
0000000000000000000000
0000000000000000000000
0000000000000000000000
0000000000000000000000
0000000000000000000000
0000000000000000000011
0000000000000000000011
0000000000000000000101
0000000000000000000110
0000000000000000001001
0000000000000000010100
0000000000000000011011
0000000000000000100001
0000000000000000100111
0000000000000001000000
0000000000000001011111
0000000000000001110101
0000000000000010001110
0000000000000010111110
0000000000000100101011
0000000000000110000000
0000000000000111000011
0000000000001000110001
0000000000001011111111
0000000000001101111011
0000000000010000011010
0000000000010010001101
0000000000010100001011
0000000000010111000100
0000000000011011101000
0000000000011111101011
0000000000100101100100
0000000000101001101011
0000000000101100001010
0000000000101111000010
0000000000110011110010
0000000000111000001101
0000000000111100011001
0000000001000001100110
0000000001000110000001
0000000001000111110110
0000000001001011100010
0000000001001110100110
0000000001010011001100
0000000001010111001101
0000000001011001110000
0000000001011100011010
0000000001011101110011
0000000001011110110111
0000000001100000001001
0000000001100010101001
0000000001100100101101
0000000001100110100001
0000000001101000001010
0000000001101001100110
0000000001101100000000
0000000001101110000101
0000000001101111101000
0000000001110000011111
0000000001110001110101
0000000001110011000100
0000000001110011111000
0000000001110100100001
0000000001110101011101
0000000001110110101000
0000000001111000001111
0000000001111001000110
0000000001111001011000
0000000001111001110010
0000000001111010011000
0000000001111011100101
0000000001111100110100
0000000001111101101101
0000000001111110011011
0000000001111110101101
0000000001111111001001
0000000010000000000000
0000000010000000101101
0000000010000001011111
0000000010000010110001
0000000010000011101000
0000000010000100011010
0000000010000100101110
0000000010000110011110
0000000010000111011100
0000000010001000100110
0000000010001001000111
0000000010001010000010
0000000010001011001111
0000000010001100010000
0000000010001100111111
0000000010001101101111
0000000010001110010100
0000000010001111001010
0000000010010000000011
0000000010010000100101
0000000010010001001011
0000000010010001101101
0000000010010010101011
0000000010010011110101
0000000010010100110001
0000000010010101010100
0000000010010101111010
0000000010010110110111
0000000010010111111100
0000000010011000110010
0000000010011001111011
0000000010011010111010
0000000010011011101110
0000000010011100100011
0000000010011101000100
0000000010011101101100
0000000010011110011011
0000000010011111001110
0000000010100001000100
0000000010100011000010
0000000010100011101100
0000000010100100011110
0000000010100101011110
0000000010100110110111
0000000010101000110110
0000000010101010010011
0000000010101100111011
0000000010110000111111
0000000010110101110000
0000000010111000111001
0000000010111011001110
0000000010111100101001
0000000010111110101101
0000000011000000111000
0000000011000010110001
0000000011000011111100
0000000011000100101111
0000000011000110100101
0000000011001000100110
0000000011001010001111
0000000011001100011100
0000000011001101010001
0000000011001110001100
0000000011001111001100
0000000011010000110100
0000000011010010111010
0000000011010101000011
0000000011010111000011
0000000011011000110011
0000000011011010001110
0000000011011100110110
0000000011100000000101
0000000011100011111010
0000000011100111100001
0000000011101011110111
0000000011101101111011
0000000011101111101101
0000000011110010101111
0000000011110111000101
0000000011111011010111
0000000011111111010101
0000000100000010111100
0000000100000100110111
0000000100000110011100
0000000100001001101100
0000000100001110001011
0000000100010001111100
0000000100010101010011
0000000100011010010110
0000000100011101000011
0000000100011110111101
0000000100100001001001
0000000100100101101001
0000000100101010001010
0000000100101111010011
0000000100110011110110
0000000100110110111011
0000000100111000110100
0000000100111011110011
0000000101000000001100
0000000101000101000101
0000000101001000111011
0000000101010000110011
0000000101010100011101
0000000101010110100101
0000000101011010101000
0000000101100000010100
0000000101100110011111
0000000101101011111101
0000000101110011100010
0000000101111000100010
0000000101111100110100
0000000110000000110100
0000000110001000100111
0000000110010010101100
0000000110011101001111
0000000110101001101100
0000000110110001100100
0000000110110111111110
0000000111000000101111
0000000111010010111000
0000000111100100111110
0000000111111010100100
0000001000010001000111
0000001000101001001000
0000001000110101011111
0000001001000101100011
0000001001011111101110
0000001010000001000011
0000001010110001111000
0000001011010010110100
0000001011110010110010
0000001100000010001010
0000001100011001001110
0000001100111110100010
0000001101100010100101
0000001110010000000001
0000001110111110000011
0000001111011101000000
0000001111110001011000
0000010000000101011100
0000010000100100000111
0000010001010001110101
0000010010001000100011
0000010011000011110110
0000010011101011110000
0000010100001000100000
0000010100111001001110
0000010101111110111000
0000010111010010010010
0000011000100110100100
0000011010101101001100
0000011011110101101000
0000011100100110001000
0000011101101001011100
0000011111101011100000
0000100010000000101001
0000100100011000100100
0000100111000110000100
0000101001001110001101
0000101010011101010000
0000101100011011011100
0000101111010110101100
0000110011000000100101
0000110110011101101111
0000111010001100000000
0000111101001110110111
0000111111000000111011
0001000001100001011011
0001000101010110001100
0001001000100000111110
0001001011101100111001
0001001111000001011100
0001010001110011111111
0001010011011010010110
0001010101101010101101
0001011000100111100101
0001011100011101010010
0001011111101100000010
0001100010100000011100
0001100100011001000100
0001100101010001011100
0001100110101111111100
0001101000111101011011
0001101011001000110011
0001101101000011110101
0001101110110110110011
0001101111111000010111
0001110000010101111001
0001110001101010011011
0001110010101100110001
0001110100000010111011
0001110101101000000001
0001110111000010110001
0001110111110100101000
0001111000001100001101
0001111001010000101001
0001111010101100001101
0001111011111001010000
0001111100111000100000
0000000000000000000000
0000000000000000000000
0000000000000000000000
0000000000000000000000
0000000000000000000000
0000000000000000000000
0000000000000000000000
0000000000000000000000
0000000000000000000000
0000000000000000000000
0000000000000000000000
0000000000000000000000
0000000000000000000000
0000000000000000000000
0000000000000000000000
0000000000000000000000
0000000000000000000000
0000000000000000000000
0000000000000000000000
0000000000000000000000
0000000000000000000000
0000000000000000000000
0000000000000000000000
0000000000000000000000
0000000000000000000000
0000000000000000000000
0000000000000000000000
0000000000000000000000
0000000000000000000000
0000000000000000000000
0000000000000000000000
0000000000000000000000
0000000000000000000000
0000000000000000000000
0000000000000000000000
0000000000000000000000
0000000000000000000000
0000000000000000000000
0000000000000000000000
0000000000000000000000
0000000000000000000000
0000000000000000000000
0000000000000000000000
0000000000000000000000
0000000000000000000000
0000000000000000000000
0000000000000000000000
0000000000000000000100
0000000000000000001001
0000000000000000001001
0000000000000000001001
0000000000000000001001
0000000000000000001010
0000000000000000001101
0000000000000000010010
0000000000000000010010
0000000000000000010111
0000000000000000011011
0000000000000000011111
0000000000000000101000
0000000000000000111000
0000000000000000111111
0000000000000001010001
0000000000000001101101
0000000000000010000010
0000000000000010110000
0000000000000011011010
0000000000000100100000
0000000000000101010001
0000000000000101111010
0000000000000111100000
0000000000001001011011
0000000000001011010000
0000000000001110001001
0000000000010000011110
0000000000010010101001
0000000000010100100010
0000000000010110011111
0000000000011001100111
0000000000011100111101
0000000000100001010110
0000000000100110011111
0000000000101001000100
0000000000101011011110
0000000000101111010000
0000000000110010111101
0000000000110111110100
0000000000111011100011
0000000000111111101101
0000000001000010000010
0000000001000011010100
0000000001000110011101
0000000001001001000110
0000000001001100001001
0000000001001111011011
0000000001010001011110
0000000001010011000000
0000000001010100111111
0000000001010111100110
0000000001011010010111
0000000001011101001011
0000000001011111111001
0000000001100001000000
0000000001100010001110
0000000001100011000011
0000000001100101001101
0000000001100110101000
0000000001101000101111
0000000001101010011001
0000000001101011110011
0000000001101100011101
0000000001101101001101
0000000001101110101110
0000000001101111101101
0000000001110001001001
0000000001110010100100
0000000001110011100001
0000000001110100001001
0000000001110100101001
0000000001110110000001
0000000001110111010001
0000000001111000100011
0000000001111001010011
0000000001111010010011
0000000001111010111011
0000000001111011010001
0000000001111100011100
0000000001111101101111
0000000001111110111100
0000000001111111110011
0000000010000000110111
0000000010000001001100
0000000010000001100100
0000000010000010011001
0000000010000011000100
0000000010000100001110
0000000010000100111100
0000000010000101111010
0000000010000110010010
0000000010000110011110
0000000010000111000110
0000000010000111111110
0000000010001000110111
0000000010001001101011
0000000010001010100000
0000000010001010110001
0000000010001011000010
0000000010001011111011
0000000010001100110001
0000000010001110000010
0000000010001111011001
0000000010010000100110
0000000010010000111100
0000000010010001001110
0000000010010010000011
0000000010010011000001
0000000010010100111101
0000000010010110011010
0000000010010111110010
0000000010011000011101
0000000010011000111010
0000000010011001100001
0000000010011011001001
0000000010011110111000
0000000010100000111111
0000000010100011011011
0000000010100101110111
0000000010101000110010
0000000010101101000010
0000000010101111011111
0000000010110001010100
0000000010110011011100
0000000010110110001101
0000000010110111010101
0000000010111000000100
0000000010111001110110
0000000010111011100100
0000000010111101010100
0000000010111110101100
0000000010111111111100
0000000011000000110110
0000000011000001101110
0000000011000011101001
0000000011000101011100
0000000011000111010010
0000000011001001100011
0000000011001100011111
0000000011001101100110
0000000011001111000000
0000000011010010011101
0000000011010101111010
0000000011011000111010
0000000011011100100001
0000000011100000100101
0000000011100010011010
0000000011100011011001
0000000011101000001010
0000000011101100001000
0000000011101111101100
0000000011110011001001
0000000011110110111101
0000000011111000100111
0000000011111001110010
0000000011111110001000
0000000100000010011011
0000000100000110101011
0000000100001010010111
0000000100001110011000
0000000100010000010001
0000000100010001101010
0000000100010110000011
0000000100011010011001
0000000100011110100111
0000000100100011101111
0000000100100111111010
0000000100101010000101
0000000100101011011111
0000000100110000011001
0000000100110100100010
0000000100111001010111
0000000100111110110101
0000000101000011110010
0000000101000110001101
0000000101001000000111
0000000101001110100000
0000000101010011101101
0000000101011001101000
0000000101100010000000
0000000101101111010110
0000000101111010010100
0000000110000101000101
0000000110010011111111
0000000110011100010011
0000000110100001000101
0000000110101110000000
0000000110111101101011
0000000111001101100011
0000000111011111111001
0000000111110111110111
0000001000000110100011
0000001000010010001000
0000001000101000011001
0000001001000100110101
0000001001011101011101
0000001001111100010110
0000001010011001110010
0000001010110010100101
0000001011000100011010
0000001011011111010111
0000001100000001010111
0000001100100000101011
0000001101000000110111
0000001101101011011111
0000001110000111010011
0000001110011010111001
0000001110101110010111
0000001111010000001101
0000001111111001110001
0000010000101000010100
0000010001100001101010
0000010010001000010111
0000010010100011001001
0000010011010111010010
0000010100100110101011
0000010101111000111100
0000010111001110100100
0000011000101101010100
0000011001110000011100
0000011010100011100011
0000011011101110010110
0000011101110001100001
0000011111110001101011
0000100010011101011001
0000100101010100011010
0000100111011011000010
0000101000011010010110
0000101011100001010110
0000101111000010101100
0000110010100011000011
0000110101111010110111
0000111001110000100011
0000111011010101101111
0000111100101011001011
0001000000110011010100
0001000100111001000001
0001000110101100100100
0001001010011000110110
0001001101111000110110
0001001111011100011010
0001010000101100101011
0001010100000011111000
0001010111010001001000
0001011010001011001011
0001011100111001100110
0001011111010110001010
0001100000010010011011
0001100001000100011101
0001100011010011111011
0001100101100000011010
0001100111010001111011
0001101000110011010000
0001101001000001010101
0001101001001011000111
0001101001010011000001
0001101001011100000001
0000000000000000000000
0000000000000000000000
0000000000000000000000
0000000000000000000000
0000000000000000000000
0000000000000000000000
0000000000000000000000
0000000000000000000000
0000000000000000000000
0000000000000000000000
0000000000000000000000
0000000000000000000000
0000000000000000000000
0000000000000000000000
0000000000000000000000
0000000000000000000000
0000000000000000000000
0000000000000000000000
0000000000000000000000
0000000000000000000000
0000000000000000000000
0000000000000000000000
0000000000000000000000
0000000000000000000000
0000000000000000000000
0000000000000000000000
0000000000000000000000
0000000000000000000000
0000000000000000000000
0000000000000000000000
0000000000000000000000
0000000000000000000000
0000000000000000000000
0000000000000000000000
0000000000000000000000
0000000000000000000000
0000000000000000000000
0000000000000000000000
0000000000000000000000
0000000000000000000000
0000000000000000000000
0000000000000000000000
0000000000000000000000
0000000000000000000000
0000000000000000000000
0000000000000000000000
0000000000000000000000
0000000000000000000000
0000000000000000000000
0000000000000000000000
0000000000000000000000
0000000000000000000000
0000000000000000000000
0000000000000000000000
0000000000000000000000
0000000000000000000001
0000000000000000000001
0000000000000000000011
0000000000000000001010
0000000000000000001010
0000000000000000001100
0000000000000000010001
0000000000000000010111
0000000000000000011100
0000000000000000100011
0000000000000000101011
0000000000000000110001
0000000000000000111001
0000000000000001000010
0000000000000001001010
0000000000000001010010
0000000000000001011100
0000000000000001101011
0000000000000001110101
0000000000000010000000
0000000000000010001000
0000000000000010010010
0000000000000010011101
0000000000000010100110
0000000000000010100110
0000000000000010101000
0000000000000010110000
0000000000000010110100
0000000000000010111101
0000000000000011000100
0000000000000011001100
0000000000000011001110
0000000000000011010100
0000000000000011011010
0000000000000011011110
0000000000000011100000
0000000000000011100001
0000000000000011100101
0000000000000011101010
0000000000000011110010
0000000000000011111010
0000000000000011111011
0000000000000011111110
0000000000000100000011
0000000000000100000110
0000000000000100001001
0000000000000100001101
0000000000000100010010
0000000000000100010101
0000000000000100011000
0000000000000100011010
0000000000000100011101
0000000000000100100001
0000000000000100100100
0000000000000100100110
0000000000000100100111
0000000000000100101001
0000000000000100101100
0000000000000100101110
0000000000000100110011
0000000000000100110110
0000000000000100111000
0000000000000100111001
0000000000000100111010
0000000000000100111011
0000000000000100111100
0000000000000100111100
0000000000000100111110
0000000000000100111110
0000000000000100111110
0000000000000100111110
0000000000000101000000
0000000000000101000001
0000000000000101000010
0000000000000101000101
0000000000000101000101
0000000000000101000101
0000000000000101000110
0000000000000101000110
0000000000000101000111
0000000000000101001000
0000000000000101001001
0000000000000101001010
0000000000000101001010
0000000000000101001011
0000000000000101001100
0000000000000101001101
0000000000000101001110
0000000000000101010000
0000000000000101010001
0000000000000101010010
0000000000000101010011
0000000000000101010100
0000000000000101010100
0000000000000101011000
0000000000000101011000
0000000000000101011001
0000000000000101011010
0000000000000101011010
0000000000000101011010
0000000000000101011011
0000000000000101011011
0000000000000101011100
0000000000000101011100
0000000000000101011110
0000000000000101100000
0000000000000101100001
0000000000000101100001
0000000000000101100001
0000000000000101100010
0000000000000101100010
0000000000000101100010
0000000000000101100011
0000000000000101100100
0000000000000101100110
0000000000000101100110
0000000000000101100110
0000000000000101101000
0000000000000101101000
0000000000000101101001
0000000000000101101001
0000000000000101101011
0000000000000101101101
0000000000000101101110
0000000000000101110001
0000000000000101110011
0000000000000101110100
0000000000000101110110
0000000000000101111000
0000000000000101111010
0000000000000101111100
0000000000000101111110
0000000000000110000000
0000000000000110000010
0000000000000110000100
0000000000000110000110
0000000000000110000111
0000000000000110001000
0000000000000110001000
0000000000000110001000
0000000000000110001001
0000000000000110001001
0000000000000110001011
0000000000000110001011
0000000000000110001100
0000000000000110001110
0000000000000110010000
0000000000000110010010
0000000000000110010110
0000000000000110010110
0000000000000110011001
0000000000000110011100
0000000000000110011111
0000000000000110011111
0000000000000110100010
0000000000000110100011
0000000000000110100101
0000000000000110100110
0000000000000110100110
0000000000000110100110
0000000000000110101001
0000000000000110101010
0000000000000110101011
0000000000000110101100
0000000000000110101100
0000000000000110110000
0000000000000110110011
0000000000000110111000
0000000000000110111011
0000000000000110111101
0000000000000111000010
0000000000000111000101
0000000000000111001010
0000000000000111001101
0000000000000111010011
0000000000000111011000
0000000000000111011110
0000000000000111101000
0000000000000111101111
0000000000000111110110
0000000000001000000010
0000000000001000001010
0000000000001000010000
0000000000001000011111
0000000000001000101001
0000000000001000111111
0000000000001001001001
0000000000001001010011
0000000000001001100011
0000000000001001110011
0000000000001001111110
0000000000001010010011
0000000000001010100011
0000000000001011000000
0000000000001011010101
0000000000001011100010
0000000000001100000011
0000000000001100011111
0000000000001101000100
0000000000001101110110
0000000000001110010000
0000000000001111001101
0000000000010000000001
0000000000010000101011
0000000000010001101111
0000000000010010100011
0000000000010011100011
0000000000010100100000
0000000000010101110000
0000000000010111000001
0000000000011000010010
0000000000011001111100
0000000000011011100110
0000000000011101100100
0000000000011111011111
0000000000100001011001
0000000000100011100100
0000000000100101111000
0000000000101000011000
0000000000101011010101
0000000000101101111011
0000000000110000111111
0000000000110100010100
0000000000110111010001
0000000000111010101000
0000000000111110000001
0000000001000010000010
0000000001000101011101
0000000001001000011010
0000000001001011101011
0000000001001110101101
0000000001010001110100
0000000001010100101011
0000000001010111111011
0000000001011010101110
0000000001011101001111
0000000001100000000001
0000000001100010110101
0000000001100101001010
0000000001100111101100
0000000001101001101111
0000000001101011111011
0000000001101101111110
0000000001101111101101
0000000001110001100111
0000000001110011010110
0000000001110101001100
0000000001110111000100
0000000001111000100111
0000000001111001100011
0000000000000000010100
0000000000000000011100
0000000000000000100001
0000000000000000100010
0000000000000000100101
0000000000000000100110
0000000000000000101011
0000000000000000110000
0000000000000000110101
0000000000000000110101
0000000000000000111000
0000000000000000111110
0000000000000000111110
0000000000000001000000
0000000000000001001000
0000000000000001001010
0000000000000001001011
0000000000000001001100
0000000000000001001100
0000000000000001001101
0000000000000001001110
0000000000000001010000
0000000000000001010000
0000000000000001010010
0000000000000001010010
0000000000000001010010
0000000000000001010011
0000000000000001010110
0000000000000001100010
0000000000000001110000
0000000000000010000111
0000000000000010101010
0000000000000011000001
0000000000000011001000
0000000000000011010011
0000000000000100000110
0000000000000101010100
0000000000000110010111
0000000000000111100011
0000000000001001010010
0000000000001100010011
0000000000001110100000
0000000000010010101001
0000000000010101001110
0000000000011100011000
0000000000100100110001
0000000000110001111110
0000000001000001011000
0000000001010001011100
0000000001100110000011
0000000001111010010001
0000000010010101101101
0000000010111001000000
0000000011011010001001
0000000011110111100011
0000000100010011101100
0000000100110111011111
0000000101100111010101
0000000110100111100000
0000000111101111111001
0000001001000011101000
0000001010000101101000
0000001010110010001000
0000001100000010101111
0000001101101010110100
0000001111001010001010
0000010000110010011011
0000010010100110000001
0000010100000001001110
0000010101001100011010
0000010110110000111101
0000011000110000101010
0000011010110100111111
0000011100110100110011
0000011110001101111001
0000011111011010010100
0000100000001101000110
0000100000111111010101
0000100010011111110010
0000100100100100001110
0000100110100111001011
0000101000101000101011
0000101010000000010000
0000101010111111001011
0000101100100101110010
0000101110101000000111
0000110000110001111001
0000110010101101010110
0000110100011100101111
0000110101100010001101
0000110110010111000010
0000111000010000001100
0000111010011000110001
0000111100001011001011
0000111101111110101111
0000111111000101000000
0001000000000001101101
0001000000111110010110
0001000010110111100010
0001000101001010001001
0001000111000111111101
0001001000111110101100
0001001010000101001010
0001001011000000010110
0001001011111111101010
0001001101111001101011
0001010000000010011110
0001010001111010100101
0001010011100110011011
0001010101010000100001
0001010110010010000110
0001010111001001100111
0001011000111110001001
0001011011000000011001
0001011100110101110111
0001011110100111110001
0001100000100000110101
0001100001101111111000
0001100010101100000001
0001100100100001010101
0001100110010010011110
0001100111111101011100
0001101001011011011001
0001101010111010111010
0001101011110010010110
0001101100010011110011
0001101101101101001100
0001101111010010011010
0001110000100101011011
0001110001110011101110
0001110010110100111011
0001110011010110100001
0001110011110111110000
0001110101000000111100
0001110110001000000100
0001110111000111101000
0001111000000010000011
0001111000111100010001
0001111001010110000101
0001111001100111100110
0001111010100000111111
0001111011011111110110
0001111100011110111010
0001111101100011101101
0001111110011011100011
0001111110110110000110
0001111111001010100111
0010000000000111101101
0010000001001111000100
0010000010010010000011
0010000011010001010010
0010000100011000000111
0010000101000000000001
0010000101100101111000
0010000110101011111101
0010000111110000111001
0010001000111000101010
0010001010000001100011
0010001011010001011000
0010001011101011101111
0010001100000011100011
0010001100011110010101
0010001101011111010100
0010001110110011110010
0010001111111100111100
0010010001010000010001
0010010001110100100010
0010010010010000011101
0010010011010101100101
0010010100100000100111
0010010101101001111101
0010010110110011110111
0010010111111101101110
0010011000100010001100
0010011000111110110010
0010011010011001001011
0010011011111000010100
0010011101011111100101
0010011110110110011010
0010100000010111111000
0010100001001100000001
0010100001100111111001
0010100011001110010001
0010100101001001110110
0010100110111111001011
0010101000110110010010
0010101010110110100000
0010101100000000000011
0010101100101001011010
0010101110100010011100
0010110000100101111001
0010110010010010010101
0010110100000101001011
0010110110010100110001
0010110111101010100110
0010111000011000001001
0010111001111101000000
0010111100000100011001
0010111110000000001001
0010111111110010111001
0011000001101101011111
0011000010111010111000
0011000011100111110001
0011000101011000001111
0011000111001111100010
0011001001000110100111
0011001011000111010001
0011001101011110111111
0011001110101110111010
0011001111010100011011
0011010001001000001101
0011010011010001000111
0011010101011011100110
0011010111101011010011
0011011010010100011001
0011011011111011000011
0011011100111000101011
0011011111001011000010
0011100001111001000011
0011100100110001100101
0011100111100101111010
0011101010111011010000
0011101100101111111100
0011101101110110110101
0011110000101100001001
0011110100100111111100
0011111000011010001110
0011111100011001010111
0100000001000101101000
0100000100010100100110
0100000110000011011000
0100001010010101000111
0100001111010010101111
0100010100010010111000
0100011010000011011111
0100011111010100101011
0100100011000010101000
0100100101100101011011
0100101010010100101101
0100101111110010101101
0100110101010001010110
0100111010111011001110
0101000000100100101010
0101000100010101000110
0101000110111000101011
0101001001110111100101
0101001110010101110010
0101010011011111010110
0101011001010101000111
0101011111000110011110
0101100010110011111111
0101100100101101011111
0101101001000011000111
0101101110101011001100
0101110100100010100000
0101111010101010010001
0110000001011011101110
0110000101110110111001
0110001000101010101001
0110001110000011000111
0110010101110001011101
0110011110010010000111
0110100110110001111101
0110110000001111000000
0110110111011000011111
0110111011100101110111
0111000011001100001100
0111001101000110100001
0111011000001001001000
0111100011011110100001
0111101110100001100101
0111111000000101111101
0111111101010111010110
1000000110000011100010
1000010001101001101100
1000011011011100000000
1000100101110101010000
1000110001010000110101
1000111010000111111101
1000111111001010100000
1001000111001001111000
1001010001101110110011
1001011100110101011111
1001100111011001000000
1001110001001111000101
1001110111101001000111
1001111010111111100110
1010000010011011101001
1010001011100010000010
1010010011100100101001
1010011011001010010010
1010100010110010001100
1010100110101111001101
1010101000111100001000
1010101111010011011010
1010110011100100111110
1010111001100011000000
1011000000000100000111
1011000110010110110101
1011001001111010100110
1011001011101011011010
1011010001011000111011
1011010111011001000111
1011011100101000000010
1011011100101000000010
